{"metaInfo":{"format":"json","completeness":{"allReports":"397","availableReports":"371","completeReports":"358","incompleteAvailable":"13","lastUpdated":"2016-11-30 14:35:17","mostRecentReportDate":"2016-11-10"},"paging":{"pageLink":"p=0","minPage":0,"currentPage":0,"maxPage":1,"totalPages":2,"totalRecords":"114","recordsPerPage":100,"recordsThisPage":100},"grouping":{"groupLink":"gro=is-t-tdis","currentGrouping":{"is-t-tdis":"Target District (Targets)"},"availableGrouping":{"is-s":"Filing Jurisdiction (General)","is-y":"Filing Year (General)","is-f-eid":"Spender (Spender)","is-f-ccg":"Spender Sector (Spender)","is-f-cci":"Spender Industry (Spender)","is-f-ccb":"Spender Business Classification (Spender)","is-f-cty":"City (Spender)","is-f-st":"State (Spender)","is-f-zip":"Zip (Spender)","is-d-typ":"Recipient Transaction Type (Recipients)","is-d-cty":"City (Recipients)","is-d-st":"State (Recipients)","is-d-zip":"Zip (Recipients)","f-par":"Parent Org or Employer (Advanced)","is-t-nme":"Original Target (Advanced)","is-t-amt":"Amount (Advanced)","is-r-osid":"Office Sought (Advanced)","is-r-oc":"Office Code (Advanced)","is-t-i":"Incumbency Data (Advanced)","is-t-icod":"Incumbency Advantage (Advanced)","d-par":"Parent Org or Employer (Payees)","is-t-id":"Record (Targets)","is-t-eid":"Target (Targets)","is-t-sup":"Position (Targets)","is-t-beid":"Ballot Measure (Targets)","is-t-ceid":"Candidate (Targets)","is-t-p":"General Party (Targets)","is-t-pt":"Specific Party (Targets)","is-r-id":"Political Race (Targets)","is-r-ot":"Type of Office (Targets)","is-t-sts":"Status of Candidate (Targets)","is-t-ico":"Incumbency Status (Targets)","is-t-ttyp":"Type of Target (Targets)","is-t-toff":"Target Office (Targets)","is-t-tprt":"Target Party (Targets)"}},"sorting":{"sortLink":"so=u-tot&sod=0","currentSorting":{"u-tot":"Total_$"},"sortingDirection":"descending","availableSorting":{"is-t-tdis":"Target_District","u-rec":"#_of_Records"}},"recordFormat":{"request":"dt=2&is-s=NC&f-fc=1,2,3&is-r-ot=H","Target_District":{"token":"is-t-tdis","id":"token value","Target_District":"display value"},"#_of_Records":{"#_of_Records":"display value"},"Total_$":{"Total_$":"display value"}}},"records":[{"record_id":1,"request":"n\/a","Target_District":{"token":"is-t-tdis","id":"","Target_District":""},"#_of_Records":{"#_of_Records":"195"},"Total_$":{"Total_$":"924452.43"}},{"record_id":2,"request":"dt=2&is-s=NC&f-fc=1,2,3&is-r-ot=H&is-t-tdis=51","Target_District":{"token":"is-t-tdis","id":"51","Target_District":"51"},"#_of_Records":{"#_of_Records":"125"},"Total_$":{"Total_$":"590191.77"}},{"record_id":3,"request":"dt=2&is-s=NC&f-fc=1,2,3&is-r-ot=H&is-t-tdis=41","Target_District":{"token":"is-t-tdis","id":"41","Target_District":"41"},"#_of_Records":{"#_of_Records":"135"},"Total_$":{"Total_$":"502663.02"}},{"record_id":4,"request":"dt=2&is-s=NC&f-fc=1,2,3&is-r-ot=H&is-t-tdis=115","Target_District":{"token":"is-t-tdis","id":"115","Target_District":"115"},"#_of_Records":{"#_of_Records":"95"},"Total_$":{"Total_$":"425935.51"}},{"record_id":5,"request":"dt=2&is-s=NC&f-fc=1,2,3&is-r-ot=H&is-t-tdis=116","Target_District":{"token":"is-t-tdis","id":"116","Target_District":"116"},"#_of_Records":{"#_of_Records":"85"},"Total_$":{"Total_$":"356454.59"}},{"record_id":6,"request":"dt=2&is-s=NC&f-fc=1,2,3&is-r-ot=H&is-t-tdis=49","Target_District":{"token":"is-t-tdis","id":"49","Target_District":"49"},"#_of_Records":{"#_of_Records":"93"},"Total_$":{"Total_$":"305995.08"}},{"record_id":7,"request":"dt=2&is-s=NC&f-fc=1,2,3&is-r-ot=H&is-t-tdis=2","Target_District":{"token":"is-t-tdis","id":"2","Target_District":"2"},"#_of_Records":{"#_of_Records":"51"},"Total_$":{"Total_$":"276588.44"}},{"record_id":8,"request":"dt=2&is-s=NC&f-fc=1,2,3&is-r-ot=H&is-t-tdis=","Target_District":{"token":"is-t-tdis","id":"","Target_District":""},"#_of_Records":{"#_of_Records":"65"},"Total_$":{"Total_$":"255091.14"}},{"record_id":9,"request":"dt=2&is-s=NC&f-fc=1,2,3&is-r-ot=H&is-t-tdis=98","Target_District":{"token":"is-t-tdis","id":"98","Target_District":"98"},"#_of_Records":{"#_of_Records":"9"},"Total_$":{"Total_$":"232279.77"}},{"record_id":10,"request":"dt=2&is-s=NC&f-fc=1,2,3&is-r-ot=H&is-t-tdis=93","Target_District":{"token":"is-t-tdis","id":"93","Target_District":"93"},"#_of_Records":{"#_of_Records":"82"},"Total_$":{"Total_$":"223811.50"}},{"record_id":11,"request":"dt=2&is-s=NC&f-fc=1,2,3&is-r-ot=H&is-t-tdis=36","Target_District":{"token":"is-t-tdis","id":"36","Target_District":"36"},"#_of_Records":{"#_of_Records":"26"},"Total_$":{"Total_$":"207019.35"}},{"record_id":12,"request":"dt=2&is-s=NC&f-fc=1,2,3&is-r-ot=H&is-t-tdis=118","Target_District":{"token":"is-t-tdis","id":"118","Target_District":"118"},"#_of_Records":{"#_of_Records":"48"},"Total_$":{"Total_$":"203713.54"}},{"record_id":13,"request":"dt=2&is-s=NC&f-fc=1,2,3&is-r-ot=H&is-t-tdis=3","Target_District":{"token":"is-t-tdis","id":"3","Target_District":"3"},"#_of_Records":{"#_of_Records":"40"},"Total_$":{"Total_$":"156984.06"}},{"record_id":14,"request":"dt=2&is-s=NC&f-fc=1,2,3&is-r-ot=H&is-t-tdis=45","Target_District":{"token":"is-t-tdis","id":"45","Target_District":"45"},"#_of_Records":{"#_of_Records":"40"},"Total_$":{"Total_$":"145323.91"}},{"record_id":15,"request":"dt=2&is-s=NC&f-fc=1,2,3&is-r-ot=H&is-t-tdis=81","Target_District":{"token":"is-t-tdis","id":"81","Target_District":"81"},"#_of_Records":{"#_of_Records":"31"},"Total_$":{"Total_$":"137507.08"}},{"record_id":16,"request":"dt=2&is-s=NC&f-fc=1,2,3&is-r-ot=H&is-t-tdis=22","Target_District":{"token":"is-t-tdis","id":"22","Target_District":"22"},"#_of_Records":{"#_of_Records":"20"},"Total_$":{"Total_$":"129821.79"}},{"record_id":17,"request":"dt=2&is-s=NC&f-fc=1,2,3&is-r-ot=H&is-t-tdis=77","Target_District":{"token":"is-t-tdis","id":"77","Target_District":"77"},"#_of_Records":{"#_of_Records":"6"},"Total_$":{"Total_$":"128299.73"}},{"record_id":18,"request":"dt=2&is-s=NC&f-fc=1,2,3&is-r-ot=H&is-t-tdis=9","Target_District":{"token":"is-t-tdis","id":"9","Target_District":"9"},"#_of_Records":{"#_of_Records":"10"},"Total_$":{"Total_$":"98718.00"}},{"record_id":19,"request":"dt=2&is-s=NC&f-fc=1,2,3&is-r-ot=H&is-t-tdis=6","Target_District":{"token":"is-t-tdis","id":"6","Target_District":"6"},"#_of_Records":{"#_of_Records":"26"},"Total_$":{"Total_$":"97355.29"}},{"record_id":20,"request":"dt=2&is-s=NC&f-fc=1,2,3&is-r-ot=H&is-t-tdis=88","Target_District":{"token":"is-t-tdis","id":"88","Target_District":"88"},"#_of_Records":{"#_of_Records":"13"},"Total_$":{"Total_$":"96835.43"}},{"record_id":21,"request":"dt=2&is-s=NC&f-fc=1,2,3&is-r-ot=H&is-t-tdis=55","Target_District":{"token":"is-t-tdis","id":"55","Target_District":"55"},"#_of_Records":{"#_of_Records":"10"},"Total_$":{"Total_$":"76394.90"}},{"record_id":22,"request":"dt=2&is-s=NC&f-fc=1,2,3&is-r-ot=H&is-t-tdis=103","Target_District":{"token":"is-t-tdis","id":"103","Target_District":"103"},"#_of_Records":{"#_of_Records":"11"},"Total_$":{"Total_$":"74589.93"}},{"record_id":23,"request":"dt=2&is-s=NC&f-fc=1,2,3&is-r-ot=H&is-t-tdis=25","Target_District":{"token":"is-t-tdis","id":"25","Target_District":"25"},"#_of_Records":{"#_of_Records":"12"},"Total_$":{"Total_$":"74377.16"}},{"record_id":24,"request":"dt=2&is-s=NC&f-fc=1,2,3&is-r-ot=H&is-t-tdis=91","Target_District":{"token":"is-t-tdis","id":"91","Target_District":"91"},"#_of_Records":{"#_of_Records":"4"},"Total_$":{"Total_$":"69086.11"}},{"record_id":25,"request":"dt=2&is-s=NC&f-fc=1,2,3&is-r-ot=H&is-t-tdis=79","Target_District":{"token":"is-t-tdis","id":"79","Target_District":"79"},"#_of_Records":{"#_of_Records":"11"},"Total_$":{"Total_$":"66335.41"}},{"record_id":26,"request":"dt=2&is-s=NC&f-fc=1,2,3&is-r-ot=H&is-t-tdis=107","Target_District":{"token":"is-t-tdis","id":"107","Target_District":"107"},"#_of_Records":{"#_of_Records":"1"},"Total_$":{"Total_$":"64759.00"}},{"record_id":27,"request":"dt=2&is-s=NC&f-fc=1,2,3&is-r-ot=H&is-t-tdis=27","Target_District":{"token":"is-t-tdis","id":"27","Target_District":"27"},"#_of_Records":{"#_of_Records":"9"},"Total_$":{"Total_$":"63147.85"}},{"record_id":28,"request":"dt=2&is-s=NC&f-fc=1,2,3&is-r-ot=H&is-t-tdis=35","Target_District":{"token":"is-t-tdis","id":"35","Target_District":"35"},"#_of_Records":{"#_of_Records":"22"},"Total_$":{"Total_$":"57734.80"}},{"record_id":29,"request":"dt=2&is-s=NC&f-fc=1,2,3&is-r-ot=H&is-t-tdis=44","Target_District":{"token":"is-t-tdis","id":"44","Target_District":"44"},"#_of_Records":{"#_of_Records":"27"},"Total_$":{"Total_$":"50258.54"}},{"record_id":30,"request":"dt=2&is-s=NC&f-fc=1,2,3&is-r-ot=H&is-t-tdis=20","Target_District":{"token":"is-t-tdis","id":"20","Target_District":"20"},"#_of_Records":{"#_of_Records":"5"},"Total_$":{"Total_$":"44179.59"}},{"record_id":31,"request":"dt=2&is-s=NC&f-fc=1,2,3&is-r-ot=H&is-t-tdis=53","Target_District":{"token":"is-t-tdis","id":"53","Target_District":"53"},"#_of_Records":{"#_of_Records":"16"},"Total_$":{"Total_$":"41143.04"}},{"record_id":32,"request":"dt=2&is-s=NC&f-fc=1,2,3&is-r-ot=H&is-t-tdis=1","Target_District":{"token":"is-t-tdis","id":"1","Target_District":"1"},"#_of_Records":{"#_of_Records":"7"},"Total_$":{"Total_$":"40281.62"}},{"record_id":33,"request":"dt=2&is-s=NC&f-fc=1,2,3&is-r-ot=H&is-t-tdis=92","Target_District":{"token":"is-t-tdis","id":"92","Target_District":"92"},"#_of_Records":{"#_of_Records":"7"},"Total_$":{"Total_$":"34926.75"}},{"record_id":34,"request":"dt=2&is-s=NC&f-fc=1,2,3&is-r-ot=H&is-t-tdis=110","Target_District":{"token":"is-t-tdis","id":"110","Target_District":"110"},"#_of_Records":{"#_of_Records":"4"},"Total_$":{"Total_$":"34368.53"}},{"record_id":35,"request":"dt=2&is-s=NC&f-fc=1,2,3&is-r-ot=H&is-t-tdis=63","Target_District":{"token":"is-t-tdis","id":"63","Target_District":"63"},"#_of_Records":{"#_of_Records":"8"},"Total_$":{"Total_$":"33057.08"}},{"record_id":36,"request":"dt=2&is-s=NC&f-fc=1,2,3&is-r-ot=H&is-t-tdis=46","Target_District":{"token":"is-t-tdis","id":"46","Target_District":"46"},"#_of_Records":{"#_of_Records":"14"},"Total_$":{"Total_$":"32428.79"}},{"record_id":37,"request":"dt=2&is-s=NC&f-fc=1,2,3&is-r-ot=H&is-t-tdis= 115","Target_District":{"token":"is-t-tdis","id":" 115","Target_District":" 115"},"#_of_Records":{"#_of_Records":"1"},"Total_$":{"Total_$":"28313.58"}},{"record_id":38,"request":"dt=2&is-s=NC&f-fc=1,2,3&is-r-ot=H&is-t-tdis=74","Target_District":{"token":"is-t-tdis","id":"74","Target_District":"74"},"#_of_Records":{"#_of_Records":"2"},"Total_$":{"Total_$":"27750.00"}},{"record_id":39,"request":"dt=2&is-s=NC&f-fc=1,2,3&is-r-ot=H&is-t-tdis=67","Target_District":{"token":"is-t-tdis","id":"67","Target_District":"67"},"#_of_Records":{"#_of_Records":"8"},"Total_$":{"Total_$":"26145.49"}},{"record_id":40,"request":"dt=2&is-s=NC&f-fc=1,2,3&is-r-ot=H&is-t-tdis=52","Target_District":{"token":"is-t-tdis","id":"52","Target_District":"52"},"#_of_Records":{"#_of_Records":"3"},"Total_$":{"Total_$":"25632.00"}},{"record_id":41,"request":"dt=2&is-s=NC&f-fc=1,2,3&is-r-ot=H&is-t-tdis=80","Target_District":{"token":"is-t-tdis","id":"80","Target_District":"80"},"#_of_Records":{"#_of_Records":"8"},"Total_$":{"Total_$":"24260.12"}},{"record_id":42,"request":"dt=2&is-s=NC&f-fc=1,2,3&is-r-ot=H&is-t-tdis=82","Target_District":{"token":"is-t-tdis","id":"82","Target_District":"82"},"#_of_Records":{"#_of_Records":"7"},"Total_$":{"Total_$":"22781.82"}},{"record_id":43,"request":"dt=2&is-s=NC&f-fc=1,2,3&is-r-ot=H&is-t-tdis=60","Target_District":{"token":"is-t-tdis","id":"60","Target_District":"60"},"#_of_Records":{"#_of_Records":"6"},"Total_$":{"Total_$":"20872.19"}},{"record_id":44,"request":"dt=2&is-s=NC&f-fc=1,2,3&is-r-ot=H&is-t-tdis=117","Target_District":{"token":"is-t-tdis","id":"117","Target_District":"117"},"#_of_Records":{"#_of_Records":"5"},"Total_$":{"Total_$":"15875.02"}},{"record_id":45,"request":"dt=2&is-s=NC&f-fc=1,2,3&is-r-ot=H&is-t-tdis=08","Target_District":{"token":"is-t-tdis","id":"08","Target_District":"08"},"#_of_Records":{"#_of_Records":"2"},"Total_$":{"Total_$":"15549.16"}},{"record_id":46,"request":"dt=2&is-s=NC&f-fc=1,2,3&is-r-ot=H&is-t-tdis=8","Target_District":{"token":"is-t-tdis","id":"8","Target_District":"8"},"#_of_Records":{"#_of_Records":"7"},"Total_$":{"Total_$":"15367.93"}},{"record_id":47,"request":"dt=2&is-s=NC&f-fc=1,2,3&is-r-ot=H&is-t-tdis=03","Target_District":{"token":"is-t-tdis","id":"03","Target_District":"03"},"#_of_Records":{"#_of_Records":"1"},"Total_$":{"Total_$":"14506.00"}},{"record_id":48,"request":"dt=2&is-s=NC&f-fc=1,2,3&is-r-ot=H&is-t-tdis=39","Target_District":{"token":"is-t-tdis","id":"39","Target_District":"39"},"#_of_Records":{"#_of_Records":"4"},"Total_$":{"Total_$":"11000.00"}},{"record_id":49,"request":"dt=2&is-s=NC&f-fc=1,2,3&is-r-ot=H&is-t-tdis=11","Target_District":{"token":"is-t-tdis","id":"11","Target_District":"11"},"#_of_Records":{"#_of_Records":"5"},"Total_$":{"Total_$":"10540.00"}},{"record_id":50,"request":"dt=2&is-s=NC&f-fc=1,2,3&is-r-ot=H&is-t-tdis=10","Target_District":{"token":"is-t-tdis","id":"10","Target_District":"10"},"#_of_Records":{"#_of_Records":"5"},"Total_$":{"Total_$":"10402.56"}},{"record_id":51,"request":"dt=2&is-s=NC&f-fc=1,2,3&is-r-ot=H&is-t-tdis=17","Target_District":{"token":"is-t-tdis","id":"17","Target_District":"17"},"#_of_Records":{"#_of_Records":"1"},"Total_$":{"Total_$":"10389.00"}},{"record_id":52,"request":"dt=2&is-s=NC&f-fc=1,2,3&is-r-ot=H&is-t-tdis=112","Target_District":{"token":"is-t-tdis","id":"112","Target_District":"112"},"#_of_Records":{"#_of_Records":"6"},"Total_$":{"Total_$":"10097.88"}},{"record_id":53,"request":"dt=2&is-s=NC&f-fc=1,2,3&is-r-ot=H&is-t-tdis=40","Target_District":{"token":"is-t-tdis","id":"40","Target_District":"40"},"#_of_Records":{"#_of_Records":"7"},"Total_$":{"Total_$":"9360.51"}},{"record_id":54,"request":"dt=2&is-s=NC&f-fc=1,2,3&is-r-ot=H&is-t-tdis=85","Target_District":{"token":"is-t-tdis","id":"85","Target_District":"85"},"#_of_Records":{"#_of_Records":"3"},"Total_$":{"Total_$":"9242.00"}},{"record_id":55,"request":"dt=2&is-s=NC&f-fc=1,2,3&is-r-ot=H&is-t-tdis=26","Target_District":{"token":"is-t-tdis","id":"26","Target_District":"26"},"#_of_Records":{"#_of_Records":"4"},"Total_$":{"Total_$":"8381.00"}},{"record_id":56,"request":"dt=2&is-s=NC&f-fc=1,2,3&is-r-ot=H&is-t-tdis=15","Target_District":{"token":"is-t-tdis","id":"15","Target_District":"15"},"#_of_Records":{"#_of_Records":"3"},"Total_$":{"Total_$":"7934.17"}},{"record_id":57,"request":"dt=2&is-s=NC&f-fc=1,2,3&is-r-ot=H&is-t-tdis=4","Target_District":{"token":"is-t-tdis","id":"4","Target_District":"4"},"#_of_Records":{"#_of_Records":"2"},"Total_$":{"Total_$":"7884.66"}},{"record_id":58,"request":"dt=2&is-s=NC&f-fc=1,2,3&is-r-ot=H&is-t-tdis=114","Target_District":{"token":"is-t-tdis","id":"114","Target_District":"114"},"#_of_Records":{"#_of_Records":"3"},"Total_$":{"Total_$":"7500.00"}},{"record_id":59,"request":"dt=2&is-s=NC&f-fc=1,2,3&is-r-ot=H&is-t-tdis=86","Target_District":{"token":"is-t-tdis","id":"86","Target_District":"86"},"#_of_Records":{"#_of_Records":"4"},"Total_$":{"Total_$":"6922.88"}},{"record_id":60,"request":"dt=2&is-s=NC&f-fc=1,2,3&is-r-ot=H&is-t-tdis=65","Target_District":{"token":"is-t-tdis","id":"65","Target_District":"65"},"#_of_Records":{"#_of_Records":"5"},"Total_$":{"Total_$":"6577.54"}},{"record_id":61,"request":"dt=2&is-s=NC&f-fc=1,2,3&is-r-ot=H&is-t-tdis=87","Target_District":{"token":"is-t-tdis","id":"87","Target_District":"87"},"#_of_Records":{"#_of_Records":"4"},"Total_$":{"Total_$":"6518.08"}},{"record_id":62,"request":"dt=2&is-s=NC&f-fc=1,2,3&is-r-ot=H&is-t-tdis=119","Target_District":{"token":"is-t-tdis","id":"119","Target_District":"119"},"#_of_Records":{"#_of_Records":"2"},"Total_$":{"Total_$":"6125.12"}},{"record_id":63,"request":"dt=2&is-s=NC&f-fc=1,2,3&is-r-ot=H&is-t-tdis=64","Target_District":{"token":"is-t-tdis","id":"64","Target_District":"64"},"#_of_Records":{"#_of_Records":"1"},"Total_$":{"Total_$":"5998.77"}},{"record_id":64,"request":"dt=2&is-s=NC&f-fc=1,2,3&is-r-ot=H&is-t-tdis=78","Target_District":{"token":"is-t-tdis","id":"78","Target_District":"78"},"#_of_Records":{"#_of_Records":"8"},"Total_$":{"Total_$":"5358.43"}},{"record_id":65,"request":"dt=2&is-s=NC&f-fc=1,2,3&is-r-ot=H&is-t-tdis=37","Target_District":{"token":"is-t-tdis","id":"37","Target_District":"37"},"#_of_Records":{"#_of_Records":"7"},"Total_$":{"Total_$":"5033.51"}},{"record_id":66,"request":"dt=2&is-s=NC&f-fc=1,2,3&is-r-ot=H&is-t-tdis=120","Target_District":{"token":"is-t-tdis","id":"120","Target_District":"120"},"#_of_Records":{"#_of_Records":"1"},"Total_$":{"Total_$":"5000.00"}},{"record_id":67,"request":"dt=2&is-s=NC&f-fc=1,2,3&is-r-ot=H&is-t-tdis=29","Target_District":{"token":"is-t-tdis","id":"29","Target_District":"29"},"#_of_Records":{"#_of_Records":"1"},"Total_$":{"Total_$":"5000.00"}},{"record_id":68,"request":"dt=2&is-s=NC&f-fc=1,2,3&is-r-ot=H&is-t-tdis=61","Target_District":{"token":"is-t-tdis","id":"61","Target_District":"61"},"#_of_Records":{"#_of_Records":"1"},"Total_$":{"Total_$":"4249.00"}},{"record_id":69,"request":"dt=2&is-s=NC&f-fc=1,2,3&is-r-ot=H&is-t-tdis=18","Target_District":{"token":"is-t-tdis","id":"18","Target_District":"18"},"#_of_Records":{"#_of_Records":"3"},"Total_$":{"Total_$":"4200.00"}},{"record_id":70,"request":"dt=2&is-s=NC&f-fc=1,2,3&is-r-ot=H&is-t-tdis=H52","Target_District":{"token":"is-t-tdis","id":"H52","Target_District":"H52"},"#_of_Records":{"#_of_Records":"1"},"Total_$":{"Total_$":"4077.59"}},{"record_id":71,"request":"dt=2&is-s=NC&f-fc=1,2,3&is-r-ot=H&is-t-tdis=H53","Target_District":{"token":"is-t-tdis","id":"H53","Target_District":"H53"},"#_of_Records":{"#_of_Records":"1"},"Total_$":{"Total_$":"3847.00"}},{"record_id":72,"request":"dt=2&is-s=NC&f-fc=1,2,3&is-r-ot=H&is-t-tdis=H27","Target_District":{"token":"is-t-tdis","id":"H27","Target_District":"H27"},"#_of_Records":{"#_of_Records":"2"},"Total_$":{"Total_$":"2970.40"}},{"record_id":73,"request":"dt=2&is-s=NC&f-fc=1,2,3&is-r-ot=H&is-t-tdis=83","Target_District":{"token":"is-t-tdis","id":"83","Target_District":"83"},"#_of_Records":{"#_of_Records":"2"},"Total_$":{"Total_$":"2767.44"}},{"record_id":74,"request":"dt=2&is-s=NC&f-fc=1,2,3&is-r-ot=H&is-t-tdis=31","Target_District":{"token":"is-t-tdis","id":"31","Target_District":"31"},"#_of_Records":{"#_of_Records":"2"},"Total_$":{"Total_$":"2547.65"}},{"record_id":75,"request":"dt=2&is-s=NC&f-fc=1,2,3&is-r-ot=H&is-t-tdis=H83","Target_District":{"token":"is-t-tdis","id":"H83","Target_District":"H83"},"#_of_Records":{"#_of_Records":"1"},"Total_$":{"Total_$":"2044.14"}},{"record_id":76,"request":"dt=2&is-s=NC&f-fc=1,2,3&is-r-ot=H&is-t-tdis=68","Target_District":{"token":"is-t-tdis","id":"68","Target_District":"68"},"#_of_Records":{"#_of_Records":"2"},"Total_$":{"Total_$":"2000.00"}},{"record_id":77,"request":"dt=2&is-s=NC&f-fc=1,2,3&is-r-ot=H&is-t-tdis=75","Target_District":{"token":"is-t-tdis","id":"75","Target_District":"75"},"#_of_Records":{"#_of_Records":"1"},"Total_$":{"Total_$":"2000.00"}},{"record_id":78,"request":"dt=2&is-s=NC&f-fc=1,2,3&is-r-ot=H&is-t-tdis=99","Target_District":{"token":"is-t-tdis","id":"99","Target_District":"99"},"#_of_Records":{"#_of_Records":"2"},"Total_$":{"Total_$":"2000.00"}},{"record_id":79,"request":"dt=2&is-s=NC&f-fc=1,2,3&is-r-ot=H&is-t-tdis=H77","Target_District":{"token":"is-t-tdis","id":"H77","Target_District":"H77"},"#_of_Records":{"#_of_Records":"1"},"Total_$":{"Total_$":"1997.06"}},{"record_id":80,"request":"dt=2&is-s=NC&f-fc=1,2,3&is-r-ot=H&is-t-tdis=34","Target_District":{"token":"is-t-tdis","id":"34","Target_District":"34"},"#_of_Records":{"#_of_Records":"10"},"Total_$":{"Total_$":"1946.70"}},{"record_id":81,"request":"dt=2&is-s=NC&f-fc=1,2,3&is-r-ot=H&is-t-tdis=97","Target_District":{"token":"is-t-tdis","id":"97","Target_District":"97"},"#_of_Records":{"#_of_Records":"4"},"Total_$":{"Total_$":"1848.70"}},{"record_id":82,"request":"dt=2&is-s=NC&f-fc=1,2,3&is-r-ot=H&is-t-tdis=H87","Target_District":{"token":"is-t-tdis","id":"H87","Target_District":"H87"},"#_of_Records":{"#_of_Records":"1"},"Total_$":{"Total_$":"1626.47"}},{"record_id":83,"request":"dt=2&is-s=NC&f-fc=1,2,3&is-r-ot=H&is-t-tdis=38","Target_District":{"token":"is-t-tdis","id":"38","Target_District":"38"},"#_of_Records":{"#_of_Records":"3"},"Total_$":{"Total_$":"1612.00"}},{"record_id":84,"request":"dt=2&is-s=NC&f-fc=1,2,3&is-r-ot=H&is-t-tdis=H92","Target_District":{"token":"is-t-tdis","id":"H92","Target_District":"H92"},"#_of_Records":{"#_of_Records":"1"},"Total_$":{"Total_$":"1498.53"}},{"record_id":85,"request":"dt=2&is-s=NC&f-fc=1,2,3&is-r-ot=H&is-t-tdis=48","Target_District":{"token":"is-t-tdis","id":"48","Target_District":"48"},"#_of_Records":{"#_of_Records":"2"},"Total_$":{"Total_$":"1473.00"}},{"record_id":86,"request":"dt=2&is-s=NC&f-fc=1,2,3&is-r-ot=H&is-t-tdis=108","Target_District":{"token":"is-t-tdis","id":"108","Target_District":"108"},"#_of_Records":{"#_of_Records":"2"},"Total_$":{"Total_$":"1307.23"}},{"record_id":87,"request":"dt=2&is-s=NC&f-fc=1,2,3&is-r-ot=H&is-t-tdis=50","Target_District":{"token":"is-t-tdis","id":"50","Target_District":"50"},"#_of_Records":{"#_of_Records":"2"},"Total_$":{"Total_$":"1233.11"}},{"record_id":88,"request":"dt=2&is-s=NC&f-fc=1,2,3&is-r-ot=H&is-t-tdis=16","Target_District":{"token":"is-t-tdis","id":"16","Target_District":"16"},"#_of_Records":{"#_of_Records":"2"},"Total_$":{"Total_$":"1199.17"}},{"record_id":89,"request":"dt=2&is-s=NC&f-fc=1,2,3&is-r-ot=H&is-t-tdis=H95","Target_District":{"token":"is-t-tdis","id":"H95","Target_District":"H95"},"#_of_Records":{"#_of_Records":"1"},"Total_$":{"Total_$":"1057.35"}},{"record_id":90,"request":"dt=2&is-s=NC&f-fc=1,2,3&is-r-ot=H&is-t-tdis= 120","Target_District":{"token":"is-t-tdis","id":" 120","Target_District":" 120"},"#_of_Records":{"#_of_Records":"1"},"Total_$":{"Total_$":"1000.00"}},{"record_id":91,"request":"dt=2&is-s=NC&f-fc=1,2,3&is-r-ot=H&is-t-tdis=102","Target_District":{"token":"is-t-tdis","id":"102","Target_District":"102"},"#_of_Records":{"#_of_Records":"1"},"Total_$":{"Total_$":"1000.00"}},{"record_id":92,"request":"dt=2&is-s=NC&f-fc=1,2,3&is-r-ot=H&is-t-tdis=105","Target_District":{"token":"is-t-tdis","id":"105","Target_District":"105"},"#_of_Records":{"#_of_Records":"1"},"Total_$":{"Total_$":"1000.00"}},{"record_id":93,"request":"dt=2&is-s=NC&f-fc=1,2,3&is-r-ot=H&is-t-tdis=113","Target_District":{"token":"is-t-tdis","id":"113","Target_District":"113"},"#_of_Records":{"#_of_Records":"1"},"Total_$":{"Total_$":"1000.00"}},{"record_id":94,"request":"dt=2&is-s=NC&f-fc=1,2,3&is-r-ot=H&is-t-tdis=13","Target_District":{"token":"is-t-tdis","id":"13","Target_District":"13"},"#_of_Records":{"#_of_Records":"1"},"Total_$":{"Total_$":"1000.00"}},{"record_id":95,"request":"dt=2&is-s=NC&f-fc=1,2,3&is-r-ot=H&is-t-tdis=47","Target_District":{"token":"is-t-tdis","id":"47","Target_District":"47"},"#_of_Records":{"#_of_Records":"1"},"Total_$":{"Total_$":"1000.00"}},{"record_id":96,"request":"dt=2&is-s=NC&f-fc=1,2,3&is-r-ot=H&is-t-tdis=59","Target_District":{"token":"is-t-tdis","id":"59","Target_District":"59"},"#_of_Records":{"#_of_Records":"1"},"Total_$":{"Total_$":"1000.00"}},{"record_id":97,"request":"dt=2&is-s=NC&f-fc=1,2,3&is-r-ot=H&is-t-tdis=69","Target_District":{"token":"is-t-tdis","id":"69","Target_District":"69"},"#_of_Records":{"#_of_Records":"1"},"Total_$":{"Total_$":"1000.00"}},{"record_id":98,"request":"dt=2&is-s=NC&f-fc=1,2,3&is-r-ot=H&is-t-tdis=24","Target_District":{"token":"is-t-tdis","id":"24","Target_District":"24"},"#_of_Records":{"#_of_Records":"2"},"Total_$":{"Total_$":"973.00"}},{"record_id":99,"request":"dt=2&is-s=NC&f-fc=1,2,3&is-r-ot=H&is-t-tdis=70","Target_District":{"token":"is-t-tdis","id":"70","Target_District":"70"},"#_of_Records":{"#_of_Records":"6"},"Total_$":{"Total_$":"595.42"}},{"record_id":100,"request":"dt=2&is-s=NC&f-fc=1,2,3&is-r-ot=H&is-t-tdis=21","Target_District":{"token":"is-t-tdis","id":"21","Target_District":"21"},"#_of_Records":{"#_of_Records":"1"},"Total_$":{"Total_$":"500.00"}}]}

